waves.vcd
$date
	Fri Mar 27 21:47:38 2026
$end
$version
	Icarus Verilog
$end
$timescale
	1ps
$end
$scope module tb_seq_detector $end
$var wire 1 ! detected $end
$var reg 1 " clk $end
$var reg 1 # in $end
$var reg 1 $ rst_n $end
$scope module dut $end
$var wire 1 " clk $end
$var wire 1 # in $end
$var wire 1 $ rst_n $end
$var reg 3 % current_state [2:0] $end
$var reg 1 ! detected $end
$var reg 3 & next_state [2:0] $end
$upscope $end
$scope task apply_bit $end
$var reg 1 ' b $end
$upscope $end
$scope task reset_dut $end
$upscope $end
$upscope $end
$enddefinitions $end
$comment Show the parameter values. $end
$dumpall
$end
#0
$dumpvars
x'
b0 &
b0 %
0$
0#
0"
0!
$end
#5000
1"
#10000
0"
#15000
1"
#20000
0"
#25000
1"
#30000
1$
0"
#35000
1"
#36000
1'
#40000
b1 &
1#
0"
#45000
b1 &
b1 %
1"
#47000
0'
#50000
b10 &
0#
0"
#55000
b0 &
b10 %
1"
#57000
1'
#60000
b11 &
1#
0"
#65000
1!
b100 &
b11 %
1"
#70000
0"
#75000
0!
b1 &
b100 %
1"
#77000
b0 %
b0 &
0#
0$
#80000
0"
#85000
1"
#90000
0"
#95000
1"
#100000
0"
#105000
1"
#110000
1$
0"
#115000
1"
#120000
b1 &
1#
0"
#125000
b1 &
b1 %
1"
#127000
0'
#130000
b10 &
0#
0"
#135000
b0 &
b10 %
1"
#137000
1'
#140000
b11 &
1#
0"
#145000
1!
b100 &
b11 %
1"
#147000
0'
#150000
0!
b10 &
0#
0"
#155000
b0 &
b10 %
1"
#157000
b0 %
0$
#160000
0"
#165000
1"
#170000
0"
#175000
1"
#180000
0"
#185000
1"
#190000
1$
0"
#195000
1"
#196000
1'
#200000
b1 &
1#
0"
#205000
b1 &
b1 %
1"
#207000
0'
#210000
b10 &
0#
0"
#215000
b0 &
b10 %
1"
#217000
1'
#220000
b11 &
1#
0"
#225000
1!
b100 &
b11 %
1"
#230000
0"
#235000
0!
b1 &
b100 %
1"
#240000
0"
#245000
b1 &
b1 %
1"
#247000
0'
#250000
b10 &
0#
0"
#255000
b0 &
b10 %
1"
#257000
1'
#260000
b11 &
1#
0"
#265000
1!
b100 &
b11 %
1"
#270000
0"
#275000
0!
b1 &
b100 %
1"
#277000
b0 %
b0 &
0#
0$
#280000
0"
#285000
1"
#290000
0"
#295000
1"
#300000
0"
#305000
1"
#310000
1$
0"
#315000
1"
#316000
0'
#320000
0"
#325000
1"
#330000
0"
#335000
1"
#340000
0"
#345000
1"
#347000
1'
#350000
b1 &
1#
0"
#355000
b1 &
b1 %
1"
#357000
0'
#360000
b10 &
0#
0"
#365000
b0 &
b10 %
1"
#367000
1'
#370000
b11 &
1#
0"
#375000
1!
b100 &
b11 %
1"
#380000
0"
#385000
0!
b1 &
b100 %
1"
